<svg xmlns:rdf="http://www.w3.org/1999/02/22-rdf-syntax-ns#" xmlns="http://www.w3.org/2000/svg" height="512" width="512" version="1.1" xmlns:cc="http://creativecommons.org/ns#" xmlns:dc="http://purl.org/dc/elements/1.1/" viewBox="0 0 511.99999 511.99999">
	<g transform="translate(0 -540.36)">
		<path d="m145.27 1044.4c-55.35-33.6-87.611-65.79-102-101.61-14.762-36.78-11.837-83.18 8.157-129.36 2.007-4.6352 9.8884-21.285 17.514-37 14.493-29.866 19.194-40.904 23.455-55.072 2.9484-9.8039 5.589-22.926 5.6345-28l0.03138-3.5 2.3801 3.8732c3.3228 5.4071 10.025 22.601 12.472 31.996 2.2784 8.748 4.6272 25.191 5.6561 39.596l0.67601 9.4645 2.4292-2.9645c1.3361-1.6304 7.7306-9.9394 14.21-18.464 35.851-47.169 58.63-87.891 71.47-127.77 8.4588-26.269 11.17-44.154 10.423-68.764l-0.49497-16.318 5.6081 2.4754c42.321 18.681 82.125 59.494 108.36 111.11 10.82 21.286 22.342 51.152 26.838 69.566l1.1723 4.8008 2.5108-2.3008c4.4274-4.057 9.8141-13.36 12.708-21.949 2.399-7.1187 2.8832-10.42 3.2793-22.352 0.51583-15.542-0.99641-26.547-5.2637-38.303-1.3224-3.6431-2.2798-6.7483-2.1276-6.9005 0.67546-0.67546 16.346 14.714 24.922 24.475 46.363 52.771 76.08 115.17 81.779 171.73 4.2535 42.207-5.3373 83.623-27.557 119-13.804 21.978-35.67 46.051-58.014 63.87-17.933 14.302-54.832 38.266-53.242 34.578 12.938-30.013 17.968-47.859 20.781-73.73 1.7568-16.156 0.76858-49.3-1.9224-64.474-9.6448-54.384-33.017-100.64-69.105-136.77-7.9584-7.9667-25.745-22.978-27.226-22.978-0.23486 0-0.0906 2.3625 0.3207 5.25 2.701 18.965-1.4566 52.406-9.6224 77.396-6.2416 19.102-19.165 43.307-29.554 55.354l-3.0183 3.5 0.79417-4.5c0.43679-2.475 0.74077-10.8 0.67551-18.5-0.13637-16.092-2.6299-27.773-8.6706-40.619-5.9972-12.753-5.828-12.768-9.5503 0.83287-6.5729 24.017-17.156 46.707-33.471 71.762-17.001 26.109-24.243 42.744-27.309 62.731-3.4343 22.387 1.053 49.249 12.721 76.151 2.1439 4.943 3.898 9.1347 3.898 9.3148 0 0.9152-2.4419-0.3528-12.732-6.6113z"/>
	</g>
</svg>
