<?xml version="1.0" encoding="utf-8"?>
<!-- Generated by IcoMoon.io -->
<!DOCTYPE svg PUBLIC "-//W3C//DTD SVG 1.1//EN" "http://www.w3.org/Graphics/SVG/1.1/DTD/svg11.dtd">
<svg version="1.1" xmlns="http://www.w3.org/2000/svg" xmlns:xlink="http://www.w3.org/1999/xlink" width="16" height="16" viewBox="0 0 16 16">
<path fill="#444444" d="M0 0h4v3h-4v-3z"></path>
<path fill="#444444" d="M0 4h4v3h-4v-3z"></path>
<path fill="#444444" d="M0 12h4v3h-4v-3z"></path>
<path fill="#444444" d="M0 8h4v3h-4v-3z"></path>
<path fill="#444444" d="M5 0h11v3h-11v-3z"></path>
<path fill="#444444" d="M5 4h11v3h-11v-3z"></path>
<path fill="#444444" d="M5 12h11v3h-11v-3z"></path>
<path fill="#444444" d="M5 8h11v3h-11v-3z"></path>
</svg>
