<svg xmlns:rdf="http://www.w3.org/1999/02/22-rdf-syntax-ns#" xmlns="http://www.w3.org/2000/svg" height="512" width="512" version="1.1" xmlns:cc="http://creativecommons.org/ns#" xmlns:dc="http://purl.org/dc/elements/1.1/" viewBox="0 0 512.00001 512.00001">
	<g transform="translate(0 -540.36)">
		<path d="m72 1051.3c-3.029-1.2-40.546-38.3-42.567-42.1-0.788-1.5-1.433-4.7-1.433-7v-4.33l213.35-213.36c212.08-212.08 213.39-213.36 217.84-213.87 2.9484-0.33233 5.4766 0.0169 7.3956 1.0216 1.6036 0.8396 11.763 10.458 22.576 21.374 20.58 20.777 22.214 23.145 20.338 29.485-0.80113 2.707-423.65 426.25-427.7 428.4-3.0814 1.6379-6.1906 1.7427-9.7997 0.3302zm102-60.395c33.822-33.825 61.608-61.5 61.747-61.5 0.13918 0 0.25305 26.775 0.25305 59.5 0 58.167-0.0448 59.545-2 61.5-1.9554 1.9554-3.3333 2-61.747 2h-59.747l61.5-61.54zm104.02 59.521c-1.99-2-2.02-3.1-2.02-81.79v-79.756l32.256-32.244 32.256-32.244h55.195c35.493 0 56.979 0.38265 60.194 1.072 6.4901 1.3919 12.263 5.6482 15.783 11.636l2.8169 4.7922v96.5 96.5l-2.1584 4c-2.5256 4.6804-6.4429 8.5267-11.342 11.136-3.3278 1.7725-7.865 1.8775-92.229 2.1351-87.885 0.2684-88.748 0.2518-90.75-1.75zm-240.79-151.04l0.2721-57.5 2.8169-4.7922c3.5629-6.0613 9.3722-10.295 16.006-11.666 3.3996-0.70234 23.631-0.97895 58.93-0.80572l53.753 0.2638-66.025 66-66.025 66 0.2721-57.5zm-7.183-102.09c-6.5893-1.2916-13.036-5.7225-16.518-11.354l-3.027-4.9-0.292-41.93c-0.24449-35.156-0.04635-42.775 1.2262-47.152 1.8154-6.2447 6.9456-11.933 13.496-14.963 4.541-2.1007 5.1937-2.1158 103.28-2.3921 107.78-0.30355 104.6-0.46092 106.79 5.2948 0.59439 1.5634 0.99364 17.759 0.99364 40.308v37.694l-20.259 20.241-20.259 20.241-80.491-0.10957c-44.27-0.0603-82.496-0.50254-84.946-0.98286zm397.13-59.585 60.678-60.678 3.5875 2.4277c4.6284 3.1321 8.1481 8.2689 9.5434 13.928 0.74884 3.0372 1.0123 18.017 0.81058 46.08l-0.3 41.58-3.03 4.9c-3.6438 5.8915-9.9226 10.025-17.36 11.429-3.2365 0.61098-27.185 1.0169-59.999 1.0169h-54.612l60.678-60.678zm-151.18-38.44c0-25.998-0.84907-25.243 27.761-24.678l15.261 0.30145-21.511 21.491-21.51 21.49v-18.6zm-140.89-43.02c-36.347-3.8-60.437-20.94-65.219-46.39-1.6201-8.6246-0.53393-22.441 2.519-32.041 9.0726-28.53 33.483-41.386 68.421-36.033 24.029 3.6814 54.19 17.561 79.754 36.701 17.139 12.833 26.137 24.754 27.155 35.979 0.47633 5.2531 0.17154 6.6688-2.6852 12.472-3.6941 7.5038-9.3562 12.568-19.313 17.272-21.44 10.13-59.97 15.25-90.634 12.045zm49.36-39.851c6.1233-1.0468 12.461-2.4125 14.083-3.0348l2.9495-1.1315-3-2.4676c-6.1004-5.0178-19.486-13.387-29.101-18.194-23.534-11.768-44.503-15.794-54.723-10.509-4.1069 2.1238-6.9957 9.2472-7.0952 17.496-0.0688 5.7018 0.26279 7.03 2.2965 9.1995 4.5631 4.8677 16.6 9.0704 30.623 10.692 9.9742 1.1533 30.952 0.17529 43.968-2.0498zm144.03 38.89c-42.163-6.015-63.48-19.246-63.48-39.4 0-13.902 10.725-26.77 36.98-44.371 50.673-33.969 100.09-40.502 124.69-16.483 2.9186 2.8495 5.3066 5.5634 5.3066 6.0309 0 0.46751-6.2123 7.0505-13.805 14.629l-13.805 13.779-2.4455-3.779c-3.5134-5.4292-6.9566-6.8278-16.455-6.6841-14.04 0.21248-32.23 6.2827-50.997 17.018-9.1553 5.2374-21.643 14.196-22.194 15.923-0.38055 1.1917 10.076 3.834 22.202 5.6104 4.4 0.64456 15.323 1.1918 24.274 1.2161l16.274 0.0442-18.764 18.784c-10.32 10.331-19.443 18.729-20.274 18.662-0.83043-0.0671-4.2099-0.50712-7.5099-0.9779z"/>
	</g>
</svg>
