<svg xmlns:rdf="http://www.w3.org/1999/02/22-rdf-syntax-ns#" xmlns="http://www.w3.org/2000/svg" height="512" width="512" version="1.1" xmlns:cc="http://creativecommons.org/ns#" xmlns:dc="http://purl.org/dc/elements/1.1/" viewBox="0 0 511.99999 511.99999">
	<g transform="translate(0 -540.36)">
		<path d="m274 1015.9v-36.5h-54.497-54.497l-0.25334-146.25-0.25333-146.25-36.25-0.26247-36.25-0.26248v-72.988-72.988h73 73v73 73h-18.512-18.512l0.26232 36.75 0.26232 36.75 36.25 0.26247 36.25 0.26248v-18.512-18.512h73 73v73 73h-73-73v-36.5-36.5h-36.5-36.5v73 73h36.5 36.5v-18-18h73 73v73 73h-73-73v-36.5z"/>
	</g>
</svg>
