<svg xmlns="http://www.w3.org/2000/svg" viewBox="0 0 200 175">
<defs>
<style>.cls-1{fill:#ffffff;}</style>
</defs>
<g data-name="Слой 2">
<g data-name="Слой 1">
<path class="cls-1" d="M172.19,0q-.09,33.06-.2,66.11c0,.28-.25.57-.55,1.2-8.07.25-16,.72-23.93-3.36-17-8.74-34.4-16.56-51.53-25-3.19-1.57-5-1.48-7.65,1.19Q54.48,74.95,20.24,109.37a10.3,10.3,0,0,1-6,2.56c-4.39.38-8.83.11-14.27.11,1.83-2.19,2.8-3.49,3.91-4.66q40.7-42.72,81.37-85.47c2.22-2.35,3.88-2.48,6.76-1.06,20.53,10.12,41.16,20,61.77,30,1,.49,2.09.85,4,1.62V1.56L170.2,0Z"/>





<path class="cls-1" d="M22.84,178.76c0-18.87,0-37.25,0-55.64,0-.33-.09-.75.07-1,3.25-4.41,7.88-1.28,11.81-2.06,2.53-.5,3.39,1.06,3.37,3.56-.07,11.93.09,23.87-.07,35.8,0,3.46.61,5,4.61,5,48.1-.13,96.2-.08,144.3-.1.83,0,1.65-.12,3.2-.24V78.23h14.73V178.76Z"/>
<path class="cls-1" d="M97.7,53.43c.86,5.67.58,10.29-4.34,14.68-9.64,8.59-18.6,18-27.54,27.3a12.79,12.79,0,0,0-3.31,7.67c-.5,13.4-.67,26.81-.61,40.22,0,4.61-1.58,6.23-6.08,5.66a66,66,0,0,0-7.89-.06c-.13-2-.32-3.58-.32-5.16,0-15.4-.12-30.8.11-46.19a10.21,10.21,0,0,1,2.68-6.34C61,80.22,72,69.62,82.41,58.53,86.69,54,91.15,51.73,97.7,53.43Z"/>


</g>
</g>
</svg>