<?xml version="1.0" standalone="no"?>
<!DOCTYPE svg PUBLIC "-//W3C//DTD SVG 20010904//EN"
 "http://www.w3.org/TR/2001/REC-SVG-20010904/DTD/svg10.dtd">
<svg version="1.0" xmlns="http://www.w3.org/2000/svg"
 width="800.000000pt" height="800.000000pt" viewBox="0 0 800.000000 800.000000"
 preserveAspectRatio="xMidYMid meet">
<metadata>
Created by potrace 1.14, written by Peter Selinger 2001-2017
</metadata>
<g transform="translate(0.000000,800.000000) scale(0.100000,-0.100000)"
fill="#000000" stroke="none">
<path d="M6726 7492 c-3 -2 -17 -4 -151 -21 -49 -6 -108 -14 -130 -17 -60 -9
-77 -11 -107 -13 l-28 -1 0 -1020 c0 -994 0 -1020 -19 -1011 -10 6 -21 7 -25
4 -3 -3 -6 -1 -6 5 0 7 -6 12 -14 12 -18 0 -89 32 -357 163 -119 58 -226 108
-238 112 -11 3 -21 11 -21 16 0 5 -6 9 -13 9 -7 0 -53 20 -102 44 -50 24 -146
70 -215 104 -69 33 -219 106 -335 162 -115 56 -275 134 -355 172 -80 39 -255
124 -390 190 -135 66 -324 159 -420 206 -195 95 -249 108 -311 77 -32 -17 -98
-81 -308 -301 -51 -55 -162 -170 -245 -258 -83 -87 -171 -180 -196 -206 -25
-26 -117 -123 -205 -215 -88 -93 -176 -185 -195 -205 -19 -20 -102 -108 -185
-195 -82 -87 -172 -181 -200 -210 -27 -28 -120 -125 -205 -214 -85 -90 -175
-185 -200 -211 -25 -26 -112 -118 -195 -205 -82 -87 -179 -188 -215 -226 -36
-37 -121 -127 -190 -200 -69 -72 -152 -160 -185 -194 -33 -34 -127 -133 -210
-220 -236 -248 -243 -256 -309 -325 -83 -87 -155 -167 -191 -214 -16 -21 -35
-44 -42 -51 -19 -20 -2 -21 267 -19 313 1 361 7 461 61 49 26 814 793 1919
1923 173 177 371 380 440 450 69 70 197 201 285 292 188 192 226 224 280 236
56 12 107 -4 267 -82 75 -36 140 -66 143 -66 4 0 19 -9 33 -19 15 -10 29 -18
32 -18 3 1 48 -19 100 -45 52 -25 138 -66 190 -91 52 -25 158 -75 235 -112 77
-37 172 -82 210 -100 39 -18 146 -69 239 -114 92 -45 172 -81 177 -81 5 0 9
-4 9 -10 0 -5 5 -10 11 -10 10 0 266 -120 299 -140 45 -27 401 -200 412 -200
8 0 18 -4 23 -9 11 -9 161 -49 210 -56 17 -2 46 -6 65 -10 19 -3 96 -8 170
-10 74 -2 140 -4 145 -5 6 -1 12 -2 15 0 3 1 49 3 103 5 118 3 129 10 129 84
-1 28 -3 55 -7 60 -3 5 -1 12 4 15 6 4 6 18 1 35 -4 16 -6 32 -3 34 8 9 8 207
0 207 -5 0 -5 5 -1 11 9 14 9 103 0 117 -3 6 -3 13 1 15 5 3 7 49 5 104 -1 54
-2 103 -2 108 0 6 2 437 3 958 l4 948 -79 -3 c-44 -2 -81 -4 -82 -6z"/>
<path d="M3697 5384 c-1 -1 -21 -4 -43 -7 -50 -7 -174 -56 -174 -68 0 -5 -5
-9 -11 -9 -19 0 -99 -67 -182 -154 -44 -44 -181 -186 -305 -314 -125 -128
-228 -237 -230 -243 -2 -5 -7 -9 -11 -9 -4 0 -89 -82 -189 -182 -615 -619
-623 -629 -639 -778 -8 -64 -8 -2013 -1 -2049 l5 -24 179 -4 c98 -1 193 -3
209 -4 75 -4 145 47 161 117 4 21 14 580 14 824 0 337 17 894 30 963 14 76 75
190 137 255 363 382 734 753 963 962 169 155 219 210 256 285 19 38 37 81 40
95 15 71 25 220 14 220 -3 0 -5 15 -5 34 2 60 -8 73 -67 82 -48 7 -146 12
-151 8z"/>
<path d="M7606 2663 c0 -940 -3 -1713 -8 -1719 -4 -6 -36 -12 -70 -13 -35 -2
-1374 -4 -2977 -5 -2706 -1 -2917 0 -2952 16 -60 26 -72 54 -73 169 -1 54 -5
99 -9 99 -4 0 -4 8 1 18 9 19 8 1353 -2 1391 -9 37 -34 70 -59 76 -12 3 -60 4
-107 3 -47 -1 -112 1 -145 6 -125 17 -196 3 -253 -52 l-39 -37 0 -1057 1
-1058 3543 0 3543 0 0 1935 0 1935 -198 0 -197 0 1 -1707z"/>
</g>
</svg>
